{
  "type": "array",
  "items": {
    "type": "object",
    "properties" : {
      "id": { "type": "integer" },
      "name": { "type": "string" },
      "name_with_namespace": { "type": "string" },
      "description": { "type": ["string", "null"] },
      "path": { "type": "string" },
      "path_with_namespace": { "type": "string" },
      "created_at": { "type": "string", "format": "date-time" },
      "default_branch": { "type": ["string", "null"] },
      "tag_list": {
        "type": "array",
        "items": {
          "type": "string"
        }
      },
      "ssh_url_to_repo": { "type": "string" },
      "http_url_to_repo": { "type": "string" },
      "web_url": { "type": "string" },
      "readme_url": { "type": ["string", "null"] },
      "avatar_url": { "type": ["string", "null"] },
      "star_count": { "type": "integer" },
      "forks_count": { "type": "integer" },
      "last_activity_at": { "type": "string", "format": "date-time" },
      "namespace": {
        "type": "object",
        "properties" : {
          "id": { "type": "integer" },
          "name": { "type": "string" },
          "path": { "type": "string" },
          "kind": { "type": "string" },
          "full_path": { "type": "string" },
          "parent_id": { "type": ["integer", "null"] }
        }
      }
    },
    "required": [
      "id", "name", "name_with_namespace", "description", "path",
      "path_with_namespace", "created_at", "default_branch", "tag_list",
      "ssh_url_to_repo", "http_url_to_repo", "web_url", "avatar_url",
      "star_count", "last_activity_at", "namespace"
    ],
    "additionalProperties": false
  }
}
